…
# View results
print(result_csb$res, width = Inf)
#> # A tibble: 51 × 9
#>    method                            est    se  ci_l  ci_u p_value n_sel ess_sel
#>    <chr>                           <dbl> <dbl> <dbl> <dbl>   <dbl> <dbl>   <dbl>
#>  1 Conformal Selective Borrow AIPW 0.793 0.300 0.206  1.38 0.00812     0       0
#>  2 Conformal Selective Borrow AIPW 0.793 0.300 0.206  1.38 0.00812     0       0
#>  3 Conformal Selective Borrow AIPW 0.793 0.300 0.206  1.38 0.00812     0       0
#>  4 Conformal Selective Borrow AIPW 0.793 0.300 0.206  1.38 0.00812     0       0
#>  5 Conformal Selective Borrow AIPW 0.793 0.300 0.206  1.38 0.00812     0       0
#>  6 Conformal Selective Borrow AIPW 0.793 0.300 0.206  1.38 0.00812     0       0
#>  7 Conformal Selective Borrow AIPW 0.793 0.300 0.206  1.38 0.00812     0       0
#>  8 Conformal Selective Borrow AIPW 0.793 0.300 0.206  1.38 0.00812     0       0
#>  9 Conformal Selective Borrow AIPW 0.793 0.300 0.206  1.38 0.00812     0       0
#> 10 Conformal Selective Borrow AIPW 0.793 0.300 0.206  1.38 0.00812     0       0
#>    runtime
#>      <dbl>
#>  1  0.0460
#>  2  0.0460
#>  3  0.0460
#>  4  0.0460
#>  5  0.0460
#>  6  0.0460
#>  7  0.0460
#>  8  0.0460
#>  9  0.0460
#> 10  0.0460
#> # ℹ 41 more rows
```
…
